…
``` r
tidyDrawsDF %>%
  filter(str_detect(param, "mu")) %>%
  group_by(param) %>%
  summarize(mn = mean(value), sd = sd(value))
```

    ## # A tibble: 30 × 3
    ##    param       mn    sd
    ##    <chr>    <dbl> <dbl>
    ##  1 mu[1,1]   51.7  3.91
    ##  2 mu[10,1]  59.3  1.91
    ##  3 mu[11,1]  56.7  2.73
    ##  4 mu[12,1]  55.9  2.48
    ##  5 mu[13,1]  58.7  2.74
    ##  6 mu[14,1]  71.5  5.07
    ##  7 mu[15,1]  75.8  2.70
    ##  8 mu[16,1]  82.5  5.18
    ##  9 mu[17,1]  77.6  2.95
    ## 10 mu[18,1]  62.3  4.47
    ## # … with 20 more rows
…
